<svg width="30" height="32" viewBox="0 0 30 32" fill="none" xmlns="http://www.w3.org/2000/svg">
<path d="M3 9.84211L14.2941 16.6842L27 9.84211L15.7059 3L3 9.84211Z" fill="#D50027"/>
<path d="M14.2939 16.6841L26.9998 9.84204V22.1578L14.2939 28.9999V16.6841Z" fill="#B00021"/>
<path d="M3 9.84204L14.2941 16.6841V28.9999L3 22.1578V9.84204Z" fill="#FF002E"/>
<path d="M14.4914 1.95036L15.2026 3.27104L14.4914 1.95036L2.81469 8.23824C2.00495 8.67428 1.5 9.5197 1.5 10.4394V21.5945C1.5 22.4689 1.9568 23.2797 2.70463 23.7327L13.028 29.9867C13.7853 30.4456 14.729 30.4695 15.5086 30.0496L27.1853 23.7618C27.9951 23.3257 28.5 22.4803 28.5 21.5606V10.4055C28.5 9.53113 28.0432 8.7203 27.2954 8.26725L16.972 2.01327C16.2147 1.55443 15.271 1.5305 14.4914 1.95036Z" stroke="#FFC849" stroke-width="3"/>
</svg>
